<?xml version="1.0" encoding="utf-8"?>
<!-- Generator: Adobe Illustrator 19.2.1, SVG Export Plug-In . SVG Version: 6.00 Build 0)  -->
<svg version="1.1" id="Layer_1" xmlns="http://www.w3.org/2000/svg" xmlns:xlink="http://www.w3.org/1999/xlink" x="0px" y="0px"
	 viewBox="0 0 405.8 162.7" style="enable-background:new 0 0 405.8 162.7;" xml:space="preserve">
<style type="text/css">
	.st0{fill:#1D1D1B;}
	.st1{fill:#FF00FF;}
</style>
<g>
	<path class="st0" d="M401.7,41.8c0-1-0.4-4.2-0.5-5.3h0h-27.8v17.6h5.2c0,0.1-1.7,2.7-3,4c-1.1,1.1-2.3,2.2-3.7,3.1
		c-1.4,0.9-2.9,1.7-4.7,2.4c-1.7,0.6-3.7,1-5.9,1.1c-2.2,0.1-4.2-0.1-6.1-0.6c-1.8-0.5-3.5-1.2-5-2c-1.5-0.8-2.9-1.8-4.1-2.9
		c-1.2-1.1-2.3-2.4-3.2-3.7c-1-1.4-1.7-3-2.4-4.7c-0.6-1.7-1-3.6-1.1-5.8c-0.1-2.3,0.1-4.3,0.6-6.2c0.5-1.9,1.2-3.6,2.1-5
		c1.3-2.2,2.8-4.2,4.6-5.8c1.8-1.6,4.1-2.9,6.7-3.8c0.8-0.3,1.7-0.6,2.7-0.8c0.5-0.1,1-0.2,1.5-0.3c0.5-0.1,1.1-0.1,1.6-0.2
		c1.2-0.1,2.4,0,3.5,0.1c1.1,0.2,2.1,0.4,3.1,0.6c1.1,0.3,2.2,0.7,3.2,1.1c0,0,2.9,1.4,4.5,2.9c0.5,0.5,1,0.9,1.5,1.4h0.1h7.2h16.9
		c-1.5-3.9-3.4-7.6-5.7-10.6c-2.4-3.1-5.1-5.7-8.2-8c-1.6-1.2-3.2-2.3-5-3.2c-1.8-1-3.6-1.8-5.6-2.5c-0.1,0-0.2-0.1-0.2-0.1
		c-1.7-0.6-3.5-1.2-5.4-1.6c-3.8-0.9-7.9-1.2-12.3-0.8c-2.3,0.2-4.3,0.6-6.2,1.1c-1.9,0.5-3.7,1-5.4,1.7c-1.9,0.7-3.8,1.6-5.5,2.6
		c-1.7,1-3.4,2.1-4.9,3.3c-3.1,2.4-5.8,5.1-8.1,8.2c-2.3,3.1-4.2,6.7-5.6,10.7c-0.8,2-1.3,4.1-1.7,6.4c-0.4,2.2-0.6,4.7-0.7,7.4
		c0,1.3,0,2.6,0.1,3.8c0.1,1.3,0.3,2.5,0.5,3.7c0.2,1.2,0.5,2.3,0.8,3.4c0.3,1.1,0.6,2.1,0.9,3.1c1.5,4,3.4,7.6,5.6,10.8
		c2.3,3.1,4.9,5.9,8,8.2c2.1,1.7,4.4,3.1,6.9,4.4l-8.8,14.5c-0.2,0.3-0.1,0.6,0.1,0.9c0.1,0.2,0.4,0.3,0.6,0.3c0.1,0,0.2,0,0.3-0.1
		l27.7-11.1c1.4,0,2.8-0.2,4.3-0.4c3.7-0.5,6.9-1.3,9.8-2.5c2.9-1.2,5.5-2.6,8-4.2c6.5-4.3,11.4-10.2,14.8-17.7
		c0.8-1.8,1.5-3.8,2.1-6c0.6-2.1,1-4.5,1.2-7C401.7,45.8,401.6,43.8,401.7,41.8z"/>
	<rect x="353.4" y="36.5" class="st1" width="17.8" height="17.6"/>
</g>
<g>
	<path d="M51.9,69.4c2,2.8,3,6,3,9.9c0,4-1,7.1-3,9.5c-1.1,1.3-2.8,2.6-4.9,3.7c3.3,1.2,5.8,3.1,7.5,5.7s2.5,5.8,2.5,9.5
		c0,3.8-1,7.3-2.9,10.3c-1.2,2-2.8,3.7-4.6,5.1c-2.1,1.6-4.5,2.7-7.3,3.2c-2.8,0.6-5.9,0.9-9.1,0.9H3.8V62.5h31.3
		C43,62.6,48.6,64.9,51.9,69.4z M16.7,73.8V88h15.7c2.8,0,5.1-0.5,6.8-1.6c1.8-1.1,2.6-3,2.6-5.7c0-3-1.2-5-3.5-6
		c-2-0.7-4.6-1-7.7-1H16.7z M16.7,98.8V116h15.7c2.8,0,5-0.4,6.6-1.1c2.8-1.4,4.3-4.1,4.3-8.1c0-3.4-1.4-5.7-4.1-6.9
		c-1.5-0.7-3.7-1.1-6.5-1.1H16.7z"/>
	<path d="M80.4,73.7H67.7V62.1h12.7V73.7z M67.7,79.4h12.7v47.9H67.7V79.4z"/>
	<path d="M116.2,79.3c3,1.3,5.5,3.6,7.4,6.9v-6.9h12.2v45.4c0,6.2-1,10.8-3.1,14c-3.6,5.4-10.4,8.1-20.6,8.1c-6.1,0-11.1-1.2-15-3.6
		s-6-6-6.4-10.8h13.6c0.4,1.5,0.9,2.5,1.7,3.2c1.3,1.1,3.6,1.7,6.8,1.7c4.5,0,7.5-1.5,9-4.5c1-1.9,1.5-5.2,1.5-9.8V120
		c-1.2,2-2.5,3.6-3.9,4.6c-2.5,1.9-5.7,2.9-9.7,2.9c-6.1,0-11.1-2.2-14.7-6.5c-3.7-4.3-5.5-10.2-5.5-17.5c0-7.1,1.8-13.1,5.3-17.9
		c3.5-4.8,8.6-7.3,15-7.3C112.3,78.2,114.4,78.6,116.2,79.3z M120.5,113.7c2-2.2,3-5.7,3-10.6c0-4.5-1-8-2.9-10.4s-4.5-3.6-7.7-3.6
		c-4.4,0-7.4,2.1-9.1,6.2c-0.9,2.2-1.3,4.9-1.3,8.1c0,2.8,0.5,5.3,1.4,7.4c1.7,4,4.7,6.1,9.1,6.1C116,117,118.5,115.9,120.5,113.7z"
		/>
	<path d="M187.4,121.4c-4,5-10.2,7.5-18.4,7.5c-8.2,0-14.4-2.5-18.4-7.5c-4-5-6.1-11-6.1-18c0-6.9,2-12.9,6.1-18
		c4-5.1,10.2-7.6,18.4-7.6c8.2,0,14.4,2.5,18.4,7.6c4,5.1,6.1,11,6.1,18C193.5,110.4,191.4,116.4,187.4,121.4z M177.4,114.5
		c2-2.6,2.9-6.3,2.9-11.1s-1-8.5-2.9-11.1c-2-2.6-4.8-3.9-8.4-3.9c-3.7,0-6.5,1.3-8.5,3.9c-2,2.6-3,6.3-3,11.1s1,8.5,3,11.1
		c2,2.6,4.8,3.9,8.5,3.9C172.6,118.4,175.4,117.1,177.4,114.5z"/>
	<path d="M197.5,88.7v-8.9h6.7V66.5h12.4v13.4h7.8v8.9h-7.8V114c0,2,0.2,3.2,0.7,3.7c0.5,0.5,2,0.7,4.6,0.7c0.4,0,0.8,0,1.2,0
		c0.4,0,0.8,0,1.3-0.1v9.4l-5.9,0.2c-5.9,0.2-10-0.8-12.1-3.1c-1.4-1.4-2.1-3.6-2.1-6.6V88.7H197.5z"/>
	<path d="M263.6,80.4c3.3,1.5,6.1,3.9,8.3,7.1c2,2.8,3.2,6.1,3.8,9.9c0.3,2.2,0.5,5.4,0.4,9.5h-34.9c0.2,4.8,1.9,8.2,5,10.1
		c1.9,1.2,4.2,1.8,6.9,1.8c2.9,0,5.2-0.7,7-2.2c1-0.8,1.8-1.9,2.6-3.3h12.8c-0.3,2.8-1.9,5.7-4.6,8.7c-4.3,4.7-10.3,7-18,7
		c-6.4,0-12-2-16.9-5.9s-7.3-10.3-7.3-19.2c0-8.3,2.2-14.7,6.6-19.1c4.4-4.4,10.1-6.6,17.1-6.6C256.5,78.1,260.2,78.9,263.6,80.4z
		 M244.9,91.2c-1.8,1.8-2.9,4.3-3.3,7.4h21.6c-0.2-3.3-1.3-5.8-3.3-7.6c-2-1.7-4.5-2.6-7.4-2.6C249.1,88.4,246.6,89.3,244.9,91.2z"
		/>
	<path d="M292.1,112c0.3,2.2,0.8,3.8,1.7,4.7c1.6,1.7,4.4,2.5,8.7,2.5c2.5,0,4.4-0.4,5.9-1.1c1.5-0.7,2.2-1.8,2.2-3.3
		c0-1.4-0.6-2.5-1.8-3.2c-1.2-0.7-5.5-2-13.1-3.8c-5.4-1.3-9.3-3-11.5-5.1c-2.2-2-3.3-4.9-3.3-8.6c0-4.4,1.7-8.2,5.2-11.4
		c3.5-3.2,8.4-4.8,14.7-4.8c6,0,10.9,1.2,14.6,3.6c3.8,2.4,5.9,6.5,6.5,12.4h-12.5c-0.2-1.6-0.6-2.9-1.4-3.8c-1.4-1.7-3.7-2.5-7-2.5
		c-2.7,0-4.7,0.4-5.8,1.3c-1.2,0.8-1.7,1.8-1.7,3c0,1.4,0.6,2.5,1.9,3.1c1.2,0.7,5.6,1.8,13.1,3.5c5,1.2,8.7,2.9,11.2,5.3
		c2.5,2.4,3.7,5.4,3.7,9c0,4.7-1.8,8.6-5.3,11.6c-3.5,3-9,4.5-16.4,4.5c-7.5,0-13.1-1.6-16.7-4.8c-3.6-3.2-5.4-7.2-5.4-12.1H292.1z"
		/>
</g>
<g>
	<path class="st1" d="M257.4,141.3c0.6,0.9,1,2,1,3.2c0,1.3-0.3,2.3-1,3.1c-0.4,0.4-0.9,0.8-1.6,1.2c1.1,0.4,1.9,1,2.4,1.8
		c0.5,0.8,0.8,1.9,0.8,3.1c0,1.2-0.3,2.3-0.9,3.3c-0.4,0.7-0.9,1.2-1.5,1.6c-0.7,0.5-1.5,0.9-2.4,1s-1.9,0.3-3,0.3h-9.4v-20.9h10.1
		C254.5,139.1,256.3,139.9,257.4,141.3z M246,142.7v4.6h5.1c0.9,0,1.6-0.2,2.2-0.5s0.8-1,0.8-1.8c0-1-0.4-1.6-1.1-1.9
		c-0.6-0.2-1.5-0.3-2.5-0.3H246z M246,150.8v5.6h5.1c0.9,0,1.6-0.1,2.1-0.4c0.9-0.5,1.4-1.3,1.4-2.6c0-1.1-0.4-1.8-1.3-2.2
		c-0.5-0.2-1.2-0.3-2.1-0.4H246z"/>
	<path class="st1" d="M278.2,142.8h-11v4.4h10.1v3.6h-10.1v5.4h11.6v3.8h-15.8v-20.9h15.3V142.8z"/>
	<path class="st1" d="M297.3,139.1v3.7H291V160h-4.4v-17.2h-6.3v-3.7H297.3z"/>
	<path class="st1" d="M303.6,139.1h4.9L316,160h-4.7l-1.4-4.3h-7.7l-1.4,4.3h-4.6L303.6,139.1z M303.4,152.1h5.3l-2.6-8.2
		L303.4,152.1z"/>
</g>
</svg>
